…
In the data cleaning step, we cleaned the variables names, created
separate variables for year, month, and day, and converted these
variables to numeric variables. Additionally, variables measured in
tenths of units were converted into just units (e.g., `tmin` was
measured in tenths of degrees C and converted into degrees C).

``` r
noaatidy_df |>
  count(snow) |>
  arrange(desc(n))
```

    ## # A tibble: 282 × 2
    ##     snow       n
    ##    <int>   <int>
    ##  1     0 2008508
    ##  2    NA  381221
    ##  3    25   31022
    ##  4    13   23095
    ##  5    51   18274
    ##  6    76   10173
    ##  7     8    9962
    ##  8     5    9748
    ##  9    38    9197
    ## 10     3    8790
    ## # ℹ 272 more rows
…
